{
    "status": "success",
    "data": {
        "rosaries": [
            {
                "id": "153aedb6-1406-431e-9076-17b28df6bf37",
                "title": "The Joyful Mysteries of the Rosary",
                "display_text": "Joyful Mysteries",
                "meditation_type": "joyful_mysteries",
                "prominence_level": 1,
                "contributors": [
                    {
                        "id": "31c47d18-d42c-402a-9b0a-a7726f0e9db2",
                        "full_name": "Ben Kroger",
                        "first_name": "Ben",
                        "last_name": "Kroger",
                        "photo": {
                            "id": "9d583b3d-d63a-454b-8cfa-a0ef5af08218",
                            "mime": "image/png",
                            "url": "https://www.dropbox.com/s/kxu4ssc5pfmmu7z/afc-logo.png?dl=1",
                            "caption": "Ben Kroger"
                        }
                    }
                ],
                "icon": {
                    "id": "9d583b3d-d63a-454b-8cfa-a0ef5af08218",
                    "mime": "image/png",
                    "url": "https://www.dropbox.com/s/kxu4ssc5pfmmu7z/afc-logo.png?dl=1",
                    "caption": "AFC"
                },
                "media_resource": {
                    "id": "7dec06bd-c047-41c3-9793-8adc102fba91",
                    "caption": "The Joyful Mysteries of the Rosary",
                    "mime": "audio/mpeg3",
                    "url": "https://www.dropbox.com/s/sruj8w83hj1jesl/ben_joyful_mysteries.mp3?dl=1",
                    "icon": {
                        "id": "9d583b3d-d63a-454b-8cfa-a0ef5af08218",
                        "mime": "image/png",
                        "url": "https://www.dropbox.com/s/kxu4ssc5pfmmu7z/afc-logo.png?dl=1",
                        "caption": "AFC"
                    }
                }
            },
            {
                "id": "22efd617-446c-4efc-80e3-ad1be3b8c5ef",
                "title": "The Joyful Mysteries of the Rosary",
                "display_text": "Joyful Mysteries",
                "meditation_type": "joyful_mysteries",
                "prominence_level": 2,
                "contributors": [
                    {
                        "id": "beedc210-6569-49d6-bbed-680dcdd9568e",
                        "full_name": "Jerry Coniker",
                        "first_name": "Jerry",
                        "last_name": "Coniker",
                        "photo": {
                            "id": "9d583b3d-d63a-454b-8cfa-a0ef5af08218",
                            "mime": "image/png",
                            "url": "https://www.dropbox.com/s/kxu4ssc5pfmmu7z/afc-logo.png?dl=1",
                            "caption": "Jerry Coniker"
                        }
                    }
                ],
                "icon": {
                    "id": "9d583b3d-d63a-454b-8cfa-a0ef5af08218",
                    "mime": "image/png",
                    "url": "https://www.dropbox.com/s/kxu4ssc5pfmmu7z/afc-logo.png?dl=1",
                    "caption": "AFC"
                },
                "media_resource": {
                    "id": "5419a498-5c09-4b46-a700-723349c5acca",
                    "caption": "The Joyful Mysteries of the Rosary",
                    "mime": "audio/mpeg3",
                    "url": "https://www.dropbox.com/s/nctipayy63apoib/jerry_joyful_mysteries.mp3?dl=1",
                    "icon": {
                        "id": "9d583b3d-d63a-454b-8cfa-a0ef5af08218",
                        "mime": "image/png",
                        "url": "https://www.dropbox.com/s/kxu4ssc5pfmmu7z/afc-logo.png?dl=1",
                        "caption": "AFC"
                    }
                }
            },
            {
                "id": "ab1c3388-c3a6-4665-9f94-9f5063c3637c",
                "title": "The Luminous Mysteries of the Rosary",
                "display_text": "Luminous Mysteries",
                "meditation_type": "luminous_mysteries",
                "prominence_level": 2,
                "contributors": [
                    {
                        "id": "beedc210-6569-49d6-bbed-680dcdd9568e",
                        "full_name": "Jerry Coniker",
                        "first_name": "Jerry",
                        "last_name": "Coniker",
                        "photo": {
                            "id": "9d583b3d-d63a-454b-8cfa-a0ef5af08218",
                            "mime": "image/png",
                            "url": "https://www.dropbox.com/s/kxu4ssc5pfmmu7z/afc-logo.png?dl=1",
                            "caption": "Jerry Coniker"
                        }
                    }
                ],
                "icon": {
                    "id": "6363b77a-0081-4f3c-b8ae-08c1c1a45000",
                    "mime": "image/png",
                    "url": "https://www.dropbox.com/s/kxu4ssc5pfmmu7z/afc-logo.png?dl=1",
                    "caption": "AFC"
                },
                "media_resource": {
                    "id": "17c31c34-0338-4b49-95d6-9aa2278a3b26",
                    "caption": "The Luminous Mysteries of the Rosary",
                    "mime": "audio/mpeg3",
                    "url": "https://www.dropbox.com/s/3yw5vlzq7u4r0bf/jerry_luminous_mysteries.mp3?dl=1",
                    "icon": {
                        "id": "9d583b3d-d63a-454b-8cfa-a0ef5af08218",
                        "mime": "image/png",
                        "url": "https://www.dropbox.com/s/kxu4ssc5pfmmu7z/afc-logo.png?dl=1",
                        "caption": "AFC"
                    }
                }
            },
            {
                "id": "a36901c7-f99c-4b1c-a1e1-8aad57329f15",
                "title": "The Sorrowful Mysteries of the Rosary",
                "display_text": "Sorrowful Mysteries",
                "meditation_type": "sorrowful_mysteries",
                "prominence_level": 2,
                "contributors": [
                    {
                        "id": "beedc210-6569-49d6-bbed-680dcdd9568e",
                        "full_name": "Jerry Coniker",
                        "first_name": "Jerry",
                        "last_name": "Coniker",
                        "photo": {
                            "id": "9d583b3d-d63a-454b-8cfa-a0ef5af08218",
                            "mime": "image/png",
                            "url": "https://www.dropbox.com/s/kxu4ssc5pfmmu7z/afc-logo.png?dl=1",
                            "caption": "Jerry Coniker"
                        }
                    }
                ],
                "icon": {
                    "id": "8bcdd792-e02a-420a-aa3f-dc9971adf8ec",
                    "mime": "image/png",
                    "url": "https://www.dropbox.com/s/kxu4ssc5pfmmu7z/afc-logo.png?dl=1",
                    "caption": "AFC"
                },
                "media_resource": {
                    "id": "e473ed11-9315-4d17-bf3c-0535a2704a09",
                    "caption": "The Sorrowful Mysteries of the Rosary",
                    "mime": "audio/mpeg3",
                    "url": "https://www.dropbox.com/s/w00ryvyq8hy01yo/jerry_sorrowful_mysteries.mp3?dl=1",
                    "icon": {
                        "id": "9d583b3d-d63a-454b-8cfa-a0ef5af08218",
                        "mime": "image/png",
                        "url": "https://www.dropbox.com/s/kxu4ssc5pfmmu7z/afc-logo.png?dl=1",
                        "caption": "AFC"
                    }
                }
            },
            {
                "id": "550ec961-d62d-4db7-b69e-0c133488240a",
                "title": "The Glorious Mysteries of the Rosary",
                "display_text": "Glorious Mysteries",
                "meditation_type": "glorious_mysteries",
                "prominence_level": 2,
                "contributors": [
                    {
                        "id": "beedc210-6569-49d6-bbed-680dcdd9568e",
                        "full_name": "Jerry Coniker",
                        "first_name": "Jerry",
                        "last_name": "Coniker",
                        "photo": {
                            "id": "9d583b3d-d63a-454b-8cfa-a0ef5af08218",
                            "mime": "image/png",
                            "url": "https://www.dropbox.com/s/kxu4ssc5pfmmu7z/afc-logo.png?dl=1",
                            "caption": "Jerry Coniker"
                        }
                    }
                ],
                "icon": {
                    "id": "8bcdd792-e02a-420a-aa3f-dc9971adf8ec",
                    "mime": "image/png",
                    "url": "https://www.dropbox.com/s/kxu4ssc5pfmmu7z/afc-logo.png?dl=1",
                    "caption": "AFC"
                },
                "media_resource": {
                    "id": "0badf26a-eb36-4996-b889-12749ed15251",
                    "caption": "The Glorious Mysteries of the Rosary",
                    "mime": "audio/mpeg3",
                    "url": "https://www.dropbox.com/s/xlnls4xje48z0w7/jerry_glorious_mysteries.mp3?dl=1",
                    "icon": {
                        "id": "9d583b3d-d63a-454b-8cfa-a0ef5af08218",
                        "mime": "image/png",
                        "url": "https://www.dropbox.com/s/kxu4ssc5pfmmu7z/afc-logo.png?dl=1",
                        "caption": "AFC"
                    }
                }
            },
            {
                "id": "681e4e5b-9ad1-48d2-b314-e9d72cf7c835",
                "title": "The Joyful Mysteries of the Rosary",
                "display_text": "Joyful Mysteries",
                "meditation_type": "joyful_mysteries",
                "prominence_level": 1,
                "contributors": [
                    {
                        "id": "31c47d18-d42c-402a-9b0a-a7726f0e9db2",
                        "full_name": "Ben Kroger",
                        "first_name": "Ben",
                        "last_name": "Kroger",
                        "photo": {
                            "id": "9d583b3d-d63a-454b-8cfa-a0ef5af08218",
                            "mime": "image/png",
                            "url": "https://www.dropbox.com/s/kxu4ssc5pfmmu7z/afc-logo.png?dl=1",
                            "caption": "Ben Kroger"
                        }
                    }
                ],
                "icon": {
                    "id": "9d583b3d-d63a-454b-8cfa-a0ef5af08218",
                    "mime": "image/png",
                    "url": "https://www.dropbox.com/s/kxu4ssc5pfmmu7z/afc-logo.png?dl=1",
                    "caption": "AFC"
                },
                "media_resource": {
                    "id": "b90d48f4-7a20-46e4-8038-5e5a33f7d2d2",
                    "caption": "The Joyful Mysteries of the Rosary",
                    "mime": "video/mp4",
                    "url": "https://www.dropbox.com/s/b7dt4uhsvj1t0tf/ben_joyful_mysteries.mp4?dl=1",
                    "stream": "https://vimeo.com/134910937",
                    "icon": {
                        "id": "9d583b3d-d63a-454b-8cfa-a0ef5af08218",
                        "mime": "image/png",
                        "url": "https://www.dropbox.com/s/kxu4ssc5pfmmu7z/afc-logo.png?dl=1",
                        "caption": "AFC"
                    }
                }
            },
            {
                "id": "db1df858-bccc-4e9e-a6e6-87fcd2339163",
                "title": "The Glorious Mysteries of the Rosary",
                "display_text": "Glorious Mysteries",
                "meditation_type": "glorious_mysteries",
                "prominence_level": 2,
                "contributors": [
                    {
                        "id": "beedc210-6569-49d6-bbed-680dcdd9568e",
                        "full_name": "Jerry Coniker",
                        "first_name": "Jerry",
                        "last_name": "Coniker",
                        "photo": {
                            "id": "9d583b3d-d63a-454b-8cfa-a0ef5af08218",
                            "mime": "image/png",
                            "url": "https://www.dropbox.com/s/kxu4ssc5pfmmu7z/afc-logo.png?dl=1",
                            "caption": "Jerry Coniker"
                        }
                    }
                ],
                "icon": {
                    "id": "618303b2-cc33-466e-95e8-36e4623473a4",
                    "mime": "image/png",
                    "url": "https://www.dropbox.com/s/kxu4ssc5pfmmu7z/afc-logo.png?dl=1",
                    "caption": "AFC"
                },
                "media_resource": {
                    "id": "6d79dfa2-8b92-4664-885d-84f7450e4a55",
                    "caption": "The Glorious Mysteries of the Rosary",
                    "mime": "video/mp4",
                    "url": "https://www.dropbox.com/s/1b99zpwhqoi2wmh/jerry_glorious_mysteries.mp4?dl=1",
                    "stream": "https://www.youtube.com/watch?v=ots7EHhzqR8",
                    "icon": {
                        "id": "5a75f070-0802-4c6e-b196-42623afaf3ef",
                        "mime": "image/png",
                        "url": "https://www.dropbox.com/s/kxu4ssc5pfmmu7z/afc-logo.png?dl=1",
                        "caption": "AFC"
                    }
                }
            },
            {
                "id": "507d4352-442c-4135-be5e-a1013fb01a6a",
                "title": "The Luminous Mysteries of the Rosary",
                "display_text": "Luminous Mysteries",
                "meditation_type": "luminous_mysteries",
                "prominence_level": 2,
                "contributors": [
                    {
                        "id": "beedc210-6569-49d6-bbed-680dcdd9568e",
                        "full_name": "Jerry Coniker",
                        "first_name": "Jerry",
                        "last_name": "Coniker",
                        "photo": {
                            "id": "9d583b3d-d63a-454b-8cfa-a0ef5af08218",
                            "mime": "image/png",
                            "url": "https://www.dropbox.com/s/kxu4ssc5pfmmu7z/afc-logo.png?dl=1",
                            "caption": "Jerry Coniker"
                        }
                    }
                ],
                "icon": {
                    "id": "618303b2-cc33-466e-95e8-36e4623473a4",
                    "mime": "image/png",
                    "url": "https://www.dropbox.com/s/kxu4ssc5pfmmu7z/afc-logo.png?dl=1",
                    "caption": "AFC"
                },
                "media_resource": {
                    "id": "d641af09-9356-4867-98e9-eac7d4a1da20",
                    "caption": "The Luminous Mysteries of the Rosary",
                    "mime": "video/mp4",
                    "url": "https://www.dropbox.com/s/11wmegkplitn9gu/jerry_luminous_mysteries.mp4?dl=1",
                    "stream": "https://www.youtube.com/watch?v=ots7EHhzqR8",
                    "icon": {
                        "id": "5a75f070-0802-4c6e-b196-42623afaf3ef",
                        "mime": "image/png",
                        "url": "https://www.dropbox.com/s/kxu4ssc5pfmmu7z/afc-logo.png?dl=1",
                        "caption": "AFC"
                    }
                }
            },
            {
                "id": "2c7224f2-a3d4-4d33-9e75-2581e9bee868",
                "title": "The Sorrowful Mysteries of the Rosary",
                "display_text": "Sorrowful Mysteries",
                "meditation_type": "sorrowful_mysteries",
                "prominence_level": 2,
                "contributors": [
                    {
                        "id": "beedc210-6569-49d6-bbed-680dcdd9568e",
                        "full_name": "Jerry Coniker",
                        "first_name": "Jerry",
                        "last_name": "Coniker",
                        "photo": {
                            "id": "9d583b3d-d63a-454b-8cfa-a0ef5af08218",
                            "mime": "image/png",
                            "url": "https://www.dropbox.com/s/kxu4ssc5pfmmu7z/afc-logo.png?dl=1",
                            "caption": "Jerry Coniker"
                        }
                    }
                ],
                "icon": {
                    "id": "618303b2-cc33-466e-95e8-36e4623473a4",
                    "mime": "image/png",
                    "url": "https://www.dropbox.com/s/kxu4ssc5pfmmu7z/afc-logo.png?dl=1",
                    "caption": "AFC"
                },
                "media_resource": {
                    "id": "76b0f0a5-8fbb-4a4f-873b-67d3aa84a96d",
                    "caption": "The Sorrowful Mysteries of the Rosary",
                    "mime": "video/mp4",
                    "url": "https://www.dropbox.com/s/2vu34ibewpdqrcs/jerry_sorrowful_mysteries.mp4?dl=1",
                    "stream": "https://www.youtube.com/watch?v=ots7EHhzqR8",
                    "icon": {
                        "id": "5a75f070-0802-4c6e-b196-42623afaf3ef",
                        "mime": "image/png",
                        "url": "https://www.dropbox.com/s/kxu4ssc5pfmmu7z/afc-logo.png?dl=1",
                        "caption": "AFC"
                    }
                }
            },
            {
                "id": "440f2e95-cea8-41a1-8335-ec8a1503024a",
                "title": "The Joyful Mysteries of the Rosary",
                "display_text": "Joyful Mysteries",
                "meditation_type": "joyful_mysteries",
                "prominence_level": 2,
                "contributors": [
                    {
                        "id": "beedc210-6569-49d6-bbed-680dcdd9568e",
                        "full_name": "Jerry Coniker",
                        "first_name": "Jerry",
                        "last_name": "Coniker",
                        "photo": {
                            "id": "9d583b3d-d63a-454b-8cfa-a0ef5af08218",
                            "mime": "image/png",
                            "url": "https://www.dropbox.com/s/kxu4ssc5pfmmu7z/afc-logo.png?dl=1",
                            "caption": "Jerry Coniker"
                        }
                    }
                ],
                "icon": {
                    "id": "618303b2-cc33-466e-95e8-36e4623473a4",
                    "mime": "image/png",
                    "url": "https://www.dropbox.com/s/kxu4ssc5pfmmu7z/afc-logo.png?dl=1",
                    "caption": "AFC"
                },
                "media_resource": {
                    "id": "b93dbf0b-507f-4ad3-acfc-5417910508b8",
                    "caption": "The Joyful Mysteries of the Rosary",
                    "mime": "video/mp4",
                    "url": "https://www.dropbox.com/s/i1ews54194wy7lt/jerry_joyful_mysteries.mp4?dl=1",
                    "stream": "https://www.youtube.com/watch?v=ots7EHhzqR8",
                    "icon": {
                        "id": "5a75f070-0802-4c6e-b196-42623afaf3ef",
                        "mime": "image/png",
                        "url": "https://www.dropbox.com/s/kxu4ssc5pfmmu7z/afc-logo.png?dl=1",
                        "caption": "AFC"
                    }
                }
            }
        ]
    }
}